\relax 
\citation{wikiCluster}
\citation{clubs}
\citation{clubs}
\citation{clubs}
\citation{datamining}
\citation{clubs}
\@writefile{toc}{\contentsline {chapter}{\numberline {1}Introduction}{1}}
\@writefile{lof}{\addvspace {10pt}}
\@writefile{lot}{\addvspace {10pt}}
\@writefile{toc}{\contentsline {chapter}{\numberline {2}Adaptive CLUBS Approach}{3}}
\@writefile{lof}{\addvspace {10pt}}
\@writefile{lot}{\addvspace {10pt}}
\@writefile{toc}{\contentsline {section}{\numberline {2.1}Background}{3}}
\@writefile{toc}{\contentsline {section}{\numberline {2.2}Promising Dimension Prediction Approach}{4}}
\@writefile{lof}{\contentsline {figure}{\numberline {2.1}{\ignorespaces Standard CLUBS: SSQ Reduction Trend for the Generated Dataset having - 10 dimensions, 10 clusters, 100000 data points.\relax }}{5}}
\providecommand*\caption@xref[2]{\@setref\relax\@undefined{#1}}
\newlabel{fig:trajectory_generated}{{2.1}{5}}
\@writefile{lof}{\contentsline {figure}{\numberline {2.2}{\ignorespaces Standard CLUBS: SSQ Reduction Trend for the Glass Dataset\relax }}{5}}
\newlabel{fig:trajectory_glass}{{2.2}{5}}
\@writefile{toc}{\contentsline {section}{\numberline {2.3}Key challenges associated with the approach}{6}}
\@writefile{toc}{\contentsline {subsection}{\numberline {2.3.1}Choosing the Sample Size: Trade off with performance and accuracy}{6}}
\@writefile{toc}{\contentsline {subsection}{\numberline {2.3.2}Making the Sample Size Adaptive and Curve Tracking}{7}}
\citation{source}
\@writefile{toc}{\contentsline {chapter}{\numberline {3}Implementation}{9}}
\@writefile{lof}{\addvspace {10pt}}
\@writefile{lot}{\addvspace {10pt}}
\citation{birch1}
\citation{birch2}
\citation{birch3}
\citation{kdd}
\citation{datagenerator}
\citation{yeast}
\citation{conflongdemo}
\citation{t48k}
\citation{minst}
\@writefile{toc}{\contentsline {chapter}{\numberline {4}Datasets}{10}}
\@writefile{lof}{\addvspace {10pt}}
\@writefile{lot}{\addvspace {10pt}}
\gdef \LT@i {\LT@entry 
    {1}{54.35777pt}\LT@entry 
    {1}{116.28812pt}\LT@entry 
    {1}{137.067pt}\LT@entry 
    {1}{95.50922pt}\LT@entry 
    {1}{74.73032pt}}
\@writefile{toc}{\contentsline {chapter}{\numberline {5}Experiment Details}{12}}
\@writefile{lof}{\addvspace {10pt}}
\@writefile{lot}{\addvspace {10pt}}
\@writefile{toc}{\contentsline {section}{\numberline {5.1}Deciding upon Initial\_Sample\_Size}{12}}
\@writefile{toc}{\contentsline {section}{\numberline {5.2}Cluster Quality Measurement}{13}}
\@writefile{toc}{\contentsline {section}{\numberline {5.3}Performing KMeans on the obtained Clusters}{13}}
\@writefile{toc}{\contentsline {chapter}{\numberline {6}Results and Evaluation}{15}}
\@writefile{lof}{\addvspace {10pt}}
\@writefile{lot}{\addvspace {10pt}}
\@writefile{toc}{\contentsline {section}{\numberline {6.1}Results for Finding Initial\_Sample\_Size }{15}}
\@writefile{toc}{\contentsline {subsection}{\numberline {6.1.1}Fixed Sample Start Size: 40, irrespective of the cluster size}{16}}
\@writefile{lof}{\contentsline {figure}{\numberline {6.1}{\ignorespaces Speed Up Graph\relax }}{16}}
\newlabel{fig:ex1a}{{6.1}{16}}
\@writefile{lof}{\contentsline {figure}{\numberline {6.2}{\ignorespaces \%SSQ Error Graph and Total Runtime Graph\relax }}{16}}
\newlabel{fig:ex1bc}{{6.2}{16}}
\@writefile{toc}{\contentsline {subsection}{\numberline {6.1.2}Fixed Sample Start Size: 200, irrespective of the cluster size}{17}}
\@writefile{lof}{\contentsline {figure}{\numberline {6.3}{\ignorespaces Speed Up Graph\relax }}{17}}
\newlabel{fig:ex2a}{{6.3}{17}}
\@writefile{lof}{\contentsline {figure}{\numberline {6.4}{\ignorespaces \%SSQ Error Graph and Total Runtime Graph\relax }}{17}}
\newlabel{fig:ex2bc}{{6.4}{17}}
\@writefile{toc}{\contentsline {subsection}{\numberline {6.1.3}Fixed Sample Start Size: 1000, irrespective of the cluster size}{18}}
\@writefile{lof}{\contentsline {figure}{\numberline {6.5}{\ignorespaces Speed Up Graph\relax }}{18}}
\newlabel{fig:ex3a}{{6.5}{18}}
\@writefile{lof}{\contentsline {figure}{\numberline {6.6}{\ignorespaces \%SSQ Error Graph and Total Runtime Graph\relax }}{18}}
\newlabel{fig:ex3bc}{{6.6}{18}}
\@writefile{toc}{\contentsline {subsection}{\numberline {6.1.4}Sample Size: 1\% of the cluster size}{19}}
\@writefile{lof}{\contentsline {figure}{\numberline {6.7}{\ignorespaces Speed Up Graph\relax }}{19}}
\newlabel{fig:ex4a}{{6.7}{19}}
\@writefile{lof}{\contentsline {figure}{\numberline {6.8}{\ignorespaces \%SSQ Error Graph and Total Runtime Graph\relax }}{19}}
\newlabel{fig:ex4bc}{{6.8}{19}}
\@writefile{toc}{\contentsline {subsection}{\numberline {6.1.5}Sample Size: 2\% of the cluster size}{20}}
\@writefile{lof}{\contentsline {figure}{\numberline {6.9}{\ignorespaces Speed Up Graph\relax }}{20}}
\newlabel{fig:ex5a}{{6.9}{20}}
\@writefile{lof}{\contentsline {figure}{\numberline {6.10}{\ignorespaces \%SSQ Error Graph and Total Runtime Graph\relax }}{20}}
\newlabel{fig:ex5bc}{{6.10}{20}}
\@writefile{toc}{\contentsline {subsection}{\numberline {6.1.6}Sample Size: 5\% of the cluster size}{21}}
\@writefile{lof}{\contentsline {figure}{\numberline {6.11}{\ignorespaces Speed Up Graph\relax }}{21}}
\newlabel{fig:ex6a}{{6.11}{21}}
\@writefile{lof}{\contentsline {figure}{\numberline {6.12}{\ignorespaces \%SSQ Error Graph and Total Runtime Graph\relax }}{21}}
\newlabel{fig:ex6bc}{{6.12}{21}}
\@writefile{toc}{\contentsline {subsection}{\numberline {6.1.7}Sample Size: 10\% of the cluster size}{22}}
\@writefile{lof}{\contentsline {figure}{\numberline {6.13}{\ignorespaces Speed Up Graph\relax }}{22}}
\newlabel{fig:ex7a}{{6.13}{22}}
\@writefile{lof}{\contentsline {figure}{\numberline {6.14}{\ignorespaces \%SSQ Error Graph and Total Runtime Graph\relax }}{22}}
\newlabel{fig:ex7bc}{{6.14}{22}}
\@writefile{lof}{\contentsline {figure}{\numberline {6.15}{\ignorespaces Speed Up Graph\relax }}{23}}
\newlabel{fig:ex8a}{{6.15}{23}}
\@writefile{lof}{\contentsline {figure}{\numberline {6.16}{\ignorespaces \%SSQ Error Graph and Total Runtime Graph\relax }}{23}}
\newlabel{fig:ex8bc}{{6.16}{23}}
\@writefile{lof}{\contentsline {figure}{\numberline {6.17}{\ignorespaces Speed Up Graph\relax }}{23}}
\newlabel{fig:ex9a}{{6.17}{23}}
\@writefile{lof}{\contentsline {figure}{\numberline {6.18}{\ignorespaces \%SSQ Error Graph and Total Runtime Graph\relax }}{24}}
\newlabel{fig:ex9bc}{{6.18}{24}}
\@writefile{lof}{\contentsline {figure}{\numberline {6.19}{\ignorespaces Speed Up Graph\relax }}{24}}
\newlabel{fig:ex10a}{{6.19}{24}}
\@writefile{lof}{\contentsline {figure}{\numberline {6.20}{\ignorespaces \%SSQ Error Graph and Total Runtime Graph\relax }}{24}}
\newlabel{fig:ex10bc}{{6.20}{24}}
\@writefile{lof}{\contentsline {figure}{\numberline {6.21}{\ignorespaces Speed Up Graph\relax }}{25}}
\newlabel{fig:ex11a}{{6.21}{25}}
\@writefile{lof}{\contentsline {figure}{\numberline {6.22}{\ignorespaces \%SSQ Error Graph and Total Runtime Graph\relax }}{25}}
\newlabel{fig:ex11bc}{{6.22}{25}}
\@writefile{toc}{\contentsline {section}{\numberline {6.2}New heuristics: Sample Size = Max (1\% of the cluster size, 40)}{25}}
\@writefile{lof}{\contentsline {figure}{\numberline {6.23}{\ignorespaces Speed Up Graph\relax }}{26}}
\newlabel{fig:ex12a}{{6.23}{26}}
\@writefile{lof}{\contentsline {figure}{\numberline {6.24}{\ignorespaces \%SSQ Error Graph and Total Runtime Graph\relax }}{26}}
\newlabel{fig:ex12bc}{{6.24}{26}}
\@writefile{lof}{\contentsline {figure}{\numberline {6.25}{\ignorespaces MINST dataset.\relax }}{27}}
\newlabel{fig:minst}{{6.25}{27}}
\@writefile{lof}{\contentsline {figure}{\numberline {6.26}{\ignorespaces KDD standardized dataset.\relax }}{27}}
\newlabel{fig:kdd}{{6.26}{27}}
\@writefile{lof}{\contentsline {figure}{\numberline {6.27}{\ignorespaces Generated Dataset with splitting position equal to 0.2 * total data points.\relax }}{28}}
\newlabel{fig:generated100d}{{6.27}{28}}
\@writefile{toc}{\contentsline {section}{\numberline {6.3}KMeans on the Generated Clusters}{28}}
\@writefile{lof}{\contentsline {figure}{\numberline {6.28}{\ignorespaces KMeans Algorithm\relax }}{29}}
\newlabel{fig:k_lot1}{{6.28}{29}}
\@writefile{lof}{\contentsline {figure}{\numberline {6.29}{\ignorespaces KMeans Algorithm\relax }}{29}}
\newlabel{fig:k_lot2}{{6.29}{29}}
\@writefile{lof}{\contentsline {figure}{\numberline {6.30}{\ignorespaces KMeans Algorithm\relax }}{29}}
\newlabel{fig:k_lot3}{{6.30}{29}}
\@writefile{lof}{\contentsline {figure}{\numberline {6.31}{\ignorespaces \%SSQ Improvement with the KMeans iteration.\relax }}{30}}
\newlabel{fig:k_ssq}{{6.31}{30}}
\@writefile{toc}{\contentsline {chapter}{\numberline {7}Discussion}{31}}
\@writefile{lof}{\addvspace {10pt}}
\@writefile{lot}{\addvspace {10pt}}
\@writefile{toc}{\contentsline {chapter}{\numberline {8}Conclusion}{34}}
\@writefile{lof}{\addvspace {10pt}}
\@writefile{lot}{\addvspace {10pt}}
\@writefile{toc}{\contentsline {chapter}{\numberline {9}Acknowledgments}{35}}
\@writefile{lof}{\addvspace {10pt}}
\@writefile{lot}{\addvspace {10pt}}
\bibcite{wikiCluster}{1}
\bibcite{clubs}{2}
\bibcite{datamining}{3}
\bibcite{source}{4}
\bibcite{birch1}{5}
\bibcite{birch2}{6}
\bibcite{birch3}{7}
\bibcite{kdd}{8}
\bibcite{datagenerator}{9}
\bibcite{yeast}{10}
\bibcite{conflongdemo}{11}
\bibcite{t48k}{12}
\bibcite{minst}{13}
\@writefile{toc}{\contentsline {chapter}{References}{36}}
